
{
   "count":918,
   "next":"https://pokeapi.co/api/v2/move?offset=100&limit=100",
   "previous":null,
   "results":[
      {
         "name":"pound",
         "url":"https://pokeapi.co/api/v2/move/1/"
      },
      {
         "name":"karate-chop",
         "url":"https://pokeapi.co/api/v2/move/2/"
      },
      {
         "name":"double-slap",
         "url":"https://pokeapi.co/api/v2/move/3/"
      },
      {
         "name":"comet-punch",
         "url":"https://pokeapi.co/api/v2/move/4/"
      },
      {
         "name":"mega-punch",
         "url":"https://pokeapi.co/api/v2/move/5/"
      },
      {
         "name":"pay-day",
         "url":"https://pokeapi.co/api/v2/move/6/"
      },
      {
         "name":"fire-punch",
         "url":"https://pokeapi.co/api/v2/move/7/"
      },
      {
         "name":"ice-punch",
         "url":"https://pokeapi.co/api/v2/move/8/"
      },
      {
         "name":"thunder-punch",
         "url":"https://pokeapi.co/api/v2/move/9/"
      },
      {
         "name":"scratch",
         "url":"https://pokeapi.co/api/v2/move/10/"
      },
      {
         "name":"vice-grip",
         "url":"https://pokeapi.co/api/v2/move/11/"
      },
      {
         "name":"guillotine",
         "url":"https://pokeapi.co/api/v2/move/12/"
      },
      {
         "name":"razor-wind",
         "url":"https://pokeapi.co/api/v2/move/13/"
      },
      {
         "name":"swords-dance",
         "url":"https://pokeapi.co/api/v2/move/14/"
      },
      {
         "name":"cut",
         "url":"https://pokeapi.co/api/v2/move/15/"
      },
      {
         "name":"gust",
         "url":"https://pokeapi.co/api/v2/move/16/"
      },
      {
         "name":"wing-attack",
         "url":"https://pokeapi.co/api/v2/move/17/"
      },
      {
         "name":"whirlwind",
         "url":"https://pokeapi.co/api/v2/move/18/"
      },
      {
         "name":"fly",
         "url":"https://pokeapi.co/api/v2/move/19/"
      },
      {
         "name":"bind",
         "url":"https://pokeapi.co/api/v2/move/20/"
      },
      {
         "name":"slam",
         "url":"https://pokeapi.co/api/v2/move/21/"
      },
      {
         "name":"vine-whip",
         "url":"https://pokeapi.co/api/v2/move/22/"
      },
      {
         "name":"stomp",
         "url":"https://pokeapi.co/api/v2/move/23/"
      },
      {
         "name":"double-kick",
         "url":"https://pokeapi.co/api/v2/move/24/"
      },
      {
         "name":"mega-kick",
         "url":"https://pokeapi.co/api/v2/move/25/"
      },
      {
         "name":"jump-kick",
         "url":"https://pokeapi.co/api/v2/move/26/"
      },
      {
         "name":"rolling-kick",
         "url":"https://pokeapi.co/api/v2/move/27/"
      },
      {
         "name":"sand-attack",
         "url":"https://pokeapi.co/api/v2/move/28/"
      },
      {
         "name":"headbutt",
         "url":"https://pokeapi.co/api/v2/move/29/"
      },
      {
         "name":"horn-attack",
         "url":"https://pokeapi.co/api/v2/move/30/"
      },
      {
         "name":"fury-attack",
         "url":"https://pokeapi.co/api/v2/move/31/"
      },
      {
         "name":"horn-drill",
         "url":"https://pokeapi.co/api/v2/move/32/"
      },
      {
         "name":"tackle",
         "url":"https://pokeapi.co/api/v2/move/33/"
      },
      {
         "name":"body-slam",
         "url":"https://pokeapi.co/api/v2/move/34/"
      },
      {
         "name":"wrap",
         "url":"https://pokeapi.co/api/v2/move/35/"
      },
      {
         "name":"take-down",
         "url":"https://pokeapi.co/api/v2/move/36/"
      },
      {
         "name":"thrash",
         "url":"https://pokeapi.co/api/v2/move/37/"
      },
      {
         "name":"double-edge",
         "url":"https://pokeapi.co/api/v2/move/38/"
      },
      {
         "name":"tail-whip",
         "url":"https://pokeapi.co/api/v2/move/39/"
      },
      {
         "name":"poison-sting",
         "url":"https://pokeapi.co/api/v2/move/40/"
      },
      {
         "name":"twineedle",
         "url":"https://pokeapi.co/api/v2/move/41/"
      },
      {
         "name":"pin-missile",
         "url":"https://pokeapi.co/api/v2/move/42/"
      },
      {
         "name":"leer",
         "url":"https://pokeapi.co/api/v2/move/43/"
      },
      {
         "name":"bite",
         "url":"https://pokeapi.co/api/v2/move/44/"
      },
      {
         "name":"growl",
         "url":"https://pokeapi.co/api/v2/move/45/"
      },
      {
         "name":"roar",
         "url":"https://pokeapi.co/api/v2/move/46/"
      },
      {
         "name":"sing",
         "url":"https://pokeapi.co/api/v2/move/47/"
      },
      {
         "name":"supersonic",
         "url":"https://pokeapi.co/api/v2/move/48/"
      },
      {
         "name":"sonic-boom",
         "url":"https://pokeapi.co/api/v2/move/49/"
      },
      {
         "name":"disable",
         "url":"https://pokeapi.co/api/v2/move/50/"
      },
      {
         "name":"acid",
         "url":"https://pokeapi.co/api/v2/move/51/"
      },
      {
         "name":"ember",
         "url":"https://pokeapi.co/api/v2/move/52/"
      },
      {
         "name":"flamethrower",
         "url":"https://pokeapi.co/api/v2/move/53/"
      },
      {
         "name":"mist",
         "url":"https://pokeapi.co/api/v2/move/54/"
      },
      {
         "name":"water-gun",
         "url":"https://pokeapi.co/api/v2/move/55/"
      },
      {
         "name":"hydro-pump",
         "url":"https://pokeapi.co/api/v2/move/56/"
      },
      {
         "name":"surf",
         "url":"https://pokeapi.co/api/v2/move/57/"
      },
      {
         "name":"ice-beam",
         "url":"https://pokeapi.co/api/v2/move/58/"
      },
      {
         "name":"blizzard",
         "url":"https://pokeapi.co/api/v2/move/59/"
      },
      {
         "name":"psybeam",
         "url":"https://pokeapi.co/api/v2/move/60/"
      },
      {
         "name":"bubble-beam",
         "url":"https://pokeapi.co/api/v2/move/61/"
      },
      {
         "name":"aurora-beam",
         "url":"https://pokeapi.co/api/v2/move/62/"
      },
      {
         "name":"hyper-beam",
         "url":"https://pokeapi.co/api/v2/move/63/"
      },
      {
         "name":"peck",
         "url":"https://pokeapi.co/api/v2/move/64/"
      },
      {
         "name":"drill-peck",
         "url":"https://pokeapi.co/api/v2/move/65/"
      },
      {
         "name":"submission",
         "url":"https://pokeapi.co/api/v2/move/66/"
      },
      {
         "name":"low-kick",
         "url":"https://pokeapi.co/api/v2/move/67/"
      },
      {
         "name":"counter",
         "url":"https://pokeapi.co/api/v2/move/68/"
      },
      {
         "name":"seismic-toss",
         "url":"https://pokeapi.co/api/v2/move/69/"
      },
      {
         "name":"strength",
         "url":"https://pokeapi.co/api/v2/move/70/"
      },
      {
         "name":"absorb",
         "url":"https://pokeapi.co/api/v2/move/71/"
      },
      {
         "name":"mega-drain",
         "url":"https://pokeapi.co/api/v2/move/72/"
      },
      {
         "name":"leech-seed",
         "url":"https://pokeapi.co/api/v2/move/73/"
      },
      {
         "name":"growth",
         "url":"https://pokeapi.co/api/v2/move/74/"
      },
      {
         "name":"razor-leaf",
         "url":"https://pokeapi.co/api/v2/move/75/"
      },
      {
         "name":"solar-beam",
         "url":"https://pokeapi.co/api/v2/move/76/"
      },
      {
         "name":"poison-powder",
         "url":"https://pokeapi.co/api/v2/move/77/"
      },
      {
         "name":"stun-spore",
         "url":"https://pokeapi.co/api/v2/move/78/"
      },
      {
         "name":"sleep-powder",
         "url":"https://pokeapi.co/api/v2/move/79/"
      },
      {
         "name":"petal-dance",
         "url":"https://pokeapi.co/api/v2/move/80/"
      },
      {
         "name":"string-shot",
         "url":"https://pokeapi.co/api/v2/move/81/"
      },
      {
         "name":"dragon-rage",
         "url":"https://pokeapi.co/api/v2/move/82/"
      },
      {
         "name":"fire-spin",
         "url":"https://pokeapi.co/api/v2/move/83/"
      },
      {
         "name":"thunder-shock",
         "url":"https://pokeapi.co/api/v2/move/84/"
      },
      {
         "name":"thunderbolt",
         "url":"https://pokeapi.co/api/v2/move/85/"
      },
      {
         "name":"thunder-wave",
         "url":"https://pokeapi.co/api/v2/move/86/"
      },
      {
         "name":"thunder",
         "url":"https://pokeapi.co/api/v2/move/87/"
      },
      {
         "name":"rock-throw",
         "url":"https://pokeapi.co/api/v2/move/88/"
      },
      {
         "name":"earthquake",
         "url":"https://pokeapi.co/api/v2/move/89/"
      },
      {
         "name":"fissure",
         "url":"https://pokeapi.co/api/v2/move/90/"
      },
      {
         "name":"dig",
         "url":"https://pokeapi.co/api/v2/move/91/"
      },
      {
         "name":"toxic",
         "url":"https://pokeapi.co/api/v2/move/92/"
      },
      {
         "name":"confusion",
         "url":"https://pokeapi.co/api/v2/move/93/"
      },
      {
         "name":"psychic",
         "url":"https://pokeapi.co/api/v2/move/94/"
      },
      {
         "name":"hypnosis",
         "url":"https://pokeapi.co/api/v2/move/95/"
      },
      {
         "name":"meditate",
         "url":"https://pokeapi.co/api/v2/move/96/"
      },
      {
         "name":"agility",
         "url":"https://pokeapi.co/api/v2/move/97/"
      },
      {
         "name":"quick-attack",
         "url":"https://pokeapi.co/api/v2/move/98/"
      },
      {
         "name":"rage",
         "url":"https://pokeapi.co/api/v2/move/99/"
      },
      {
         "name":"teleport",
         "url":"https://pokeapi.co/api/v2/move/100/"
      }
   ]
}
